{
    "KPlugin": {
        "Authors": [
            {
                "Email": "kexi@kde.org",
                "Name": "Kexi Team",
                "Name[ast]": "L'equipu Kexi",
                "Name[ca@valencia]": "L'equip del Kexi",
                "Name[ca]": "L'equip del Kexi",
                "Name[cs]": "Tým Kexi",
                "Name[de]": "Kexi-Team",
                "Name[el]": "Ομάδα Kexi",
                "Name[es]": "El equipo de Kexi",
                "Name[fi]": "Kexi-työryhmä",
                "Name[fr]": "L'équipe Kexi",
                "Name[gl]": "Equipo de Kexi",
                "Name[ia]": "Equipa de Kexi",
                "Name[it]": "La squadra di Kexi",
                "Name[nl]": "Het team van Kexi",
                "Name[pl]": "Zespół Kexi",
                "Name[pt]": "Equipa do Kexi",
                "Name[pt_BR]": "Equipe do Kexi",
                "Name[ru]": "Команда разработчиков Kexi",
                "Name[sk]": "Tím Kexi",
                "Name[sv]": "Kexi-gruppen",
                "Name[tr]": "Kexi Ekibi",
                "Name[uk]": "Команда Kexi",
                "Name[x-test]": "xxKexi Teamxx",
                "Name[zh_CN]": "Kexi 团队"
            }
        ],
        "Category": "",
        "Dependencies": [],
        "Description": "Web browser element for Reports",
        "Description[ca@valencia]": "Element de navegador web per informes",
        "Description[ca]": "Element de navegador web per informes",
        "Description[da]": "Webbrowser-element til rapporter",
        "Description[de]": "Webbrowser-Element für Berichte",
        "Description[el]": "Αντικείμενο περιηγητή ιστού για αναφορές",
        "Description[es]": "Elemento de navegador Web para Reports",
        "Description[fi]": "Verkkoselainelementti raportteihin",
        "Description[fr]": "Élément navigateur web pour Reports",
        "Description[gl]": "Elemento de navegador web para informes",
        "Description[it]": "Elemento «browser web» per rapporti",
        "Description[nl]": "Webbrowserelement voor rapporten",
        "Description[pl]": "Element przeglądarki dla raportów",
        "Description[pt]": "Elemento de navegador Web para os Relatórios",
        "Description[pt_BR]": "Elemento Navegador Web para Relatórios",
        "Description[sk]": "Prvok webového prehliadača pre správy",
        "Description[sv]": "Webbläsarelement för rapporter",
        "Description[tr]": "Raporlar için Web Tarayıcı ögesi",
        "Description[uk]": "Елемент засобу для перегляду інтернету для звітів",
        "Description[x-test]": "xxWeb browser element for Reportsxx",
        "EnabledByDefault": true,
        "Icon": "kreport-web-element",
        "Id": "org.kde.kreport.web",
        "License": "LGPL",
        "Name": "Web browser",
        "Name[ast]": "Restolador web",
        "Name[ca@valencia]": "Navegador web",
        "Name[ca]": "Navegador web",
        "Name[cs]": "Webový prohlížeč",
        "Name[da]": "Webbrowser",
        "Name[de]": "Webbrowser",
        "Name[el]": "Περιηγητής ιστού",
        "Name[es]": "Navegador web",
        "Name[fr]": "Navigateur web",
        "Name[gl]": "Navegador web",
        "Name[ia]": "Navigator Web",
        "Name[it]": "Browser web",
        "Name[nl]": "Webbrowser",
        "Name[pl]": "Przeglądarka sieciowa",
        "Name[pt]": "Navegador Web",
        "Name[pt_BR]": "Navegador da Internet",
        "Name[sk]": "Webový prehliadač",
        "Name[sv]": "Webbläsare",
        "Name[tr]": "Web Tarayıcısı",
        "Name[uk]": "Переглядач інтернету",
        "Name[x-test]": "xxWeb browserxx",
        "Name[zh_CN]": "网页浏览器",
        "ServiceTypes": [
            "KReport/Element"
        ],
        "Version": "3.2",
        "Website": "http://kexi-project.org"
    },
    "X-KDE-PluginInfo-LegacyName": "web",
    "X-KReport-PluginInfo-Priority": "50"
}
