{
    "KPlugin": {
        "Authors": [
            {
                "Email": "kexi@kde.org",
                "Name": "Kexi Team",
                "Name[ast]": "L'equipu Kexi",
                "Name[ca@valencia]": "L'equip del Kexi",
                "Name[ca]": "L'equip del Kexi",
                "Name[cs]": "Tým Kexi",
                "Name[de]": "Kexi-Team",
                "Name[el]": "Ομάδα Kexi",
                "Name[es]": "El equipo de Kexi",
                "Name[fi]": "Kexi-työryhmä",
                "Name[fr]": "L'équipe Kexi",
                "Name[gl]": "Equipo de Kexi",
                "Name[ia]": "Equipa de Kexi",
                "Name[it]": "La squadra di Kexi",
                "Name[nl]": "Het team van Kexi",
                "Name[pl]": "Zespół Kexi",
                "Name[pt]": "Equipa do Kexi",
                "Name[pt_BR]": "Equipe do Kexi",
                "Name[ru]": "Команда разработчиков Kexi",
                "Name[sk]": "Tím Kexi",
                "Name[sv]": "Kexi-gruppen",
                "Name[tr]": "Kexi Ekibi",
                "Name[uk]": "Команда Kexi",
                "Name[x-test]": "xxKexi Teamxx",
                "Name[zh_CN]": "Kexi 团队"
            }
        ],
        "Category": "",
        "Dependencies": [],
        "Description": "Chart element for Reports",
        "Description[ca@valencia]": "Element de gràfic per informes",
        "Description[ca]": "Element de gràfic per informes",
        "Description[da]": "Diagram-element til rapporter",
        "Description[de]": "Diagrammelement für Berichte",
        "Description[el]": "Αντικείμενο διαγράμματος για αναφορές",
        "Description[es]": "Elemento de gráfica para Reports",
        "Description[fi]": "Kaavioelementti raportteihin",
        "Description[fr]": "Élément diagramme pour Reports",
        "Description[gl]": "Gráfica para informes.",
        "Description[it]": "Elemento «grafico» per rapporti",
        "Description[nl]": "Grafiekelement voor rapporten",
        "Description[pl]": "Element tabeli dla raportów",
        "Description[pt]": "Elemento de gráfico para os Relatórios",
        "Description[pt_BR]": "Elemento Gráfico para Relatórios",
        "Description[sk]": "Prvky grafu pre správy",
        "Description[sv]": "Diagramelement för rapporter",
        "Description[tr]": "Raporlar için Grafik ögesi",
        "Description[uk]": "Елемент діаграми для звітів",
        "Description[x-test]": "xxChart element for Reportsxx",
        "EnabledByDefault": true,
        "Icon": "report-chart-element",
        "Id": "org.kde.kreport.chart",
        "License": "LGPL",
        "Name": "Chart",
        "Name[ca@valencia]": "Gràfic",
        "Name[ca]": "Gràfic",
        "Name[cs]": "Graf",
        "Name[da]": "Diagram",
        "Name[de]": "Diagramm",
        "Name[el]": "Διάγραμμα",
        "Name[es]": "Gráfica",
        "Name[fi]": "Kaavio",
        "Name[fr]": "Diagramme",
        "Name[gl]": "Gráfica",
        "Name[ia]": "Diagramma",
        "Name[it]": "Grafico",
        "Name[nl]": "Grafiek",
        "Name[pl]": "Wykres",
        "Name[pt]": "Gráfico",
        "Name[pt_BR]": "Gráfico",
        "Name[sk]": "Graf",
        "Name[sv]": "Diagram",
        "Name[tr]": "Grafik",
        "Name[uk]": "Діаграма",
        "Name[x-test]": "xxChartxx",
        "Name[zh_CN]": "图表",
        "ServiceTypes": [
            "KReport/Element"
        ],
        "Version": "3.2",
        "Website": "http://kexi-project.org"
    },
    "X-KDE-PluginInfo-LegacyName": "chart",
    "X-KReport-PluginInfo-Priority": "50"
}
